Getting Started
…
The clean_neg() function is useful for ensuring all the values are either 0 or positive values:

pm25_sample_data <- pm25_sample_data %>% 
  mutate(value = clean_neg(value, type = "pm25"))

Calculating a CAAQS metric is straightforward. Just make sure you include grouping variables (i.e. station information in our case here)

pm <- pm_annual_caaqs(pm25_sample_data, 
                     by = c("ems_id", "site"))
pm
#> # A tibble: 30 x 14
#>    ems_id site  caaqs_year min_year max_year n_years metric metric_value
#>    <chr>  <chr>      <dbl>    <dbl>    <dbl>   <dbl> <chr>         <dbl>
#>  1 02202… Powe…       2011     2011     2011       0 pm2.5…         NA  
#>  2 02202… Powe…       2012     2012     2012       1 pm2.5…         NA  
#>  3 02202… Powe…       2013     2012     2013       1 pm2.5…         NA  
#>  4 03101… Port…       2011     2011     2011       1 pm2.5…         NA  
#>  5 03101… Port…       2012     2011     2012       2 pm2.5…          4.6
#>  6 03101… Port…       2013     2011     2013       3 pm2.5…          5.1
#>  7 03101… Squa…       2011     2011     2011       1 pm2.5…         NA  
#>  8 03101… Squa…       2012     2011     2012       2 pm2.5…          6.6
#>  9 03101… Squa…       2013     2011     2013       3 pm2.5…          6.5
#> 10 03101… Vanc…       2011     2011     2011       1 pm2.5…         NA  
#> # ... with 20 more rows, and 6 more variables: caaqs <ord>, mgmt <ord>,
#> #   excluded <lgl>, flag_daily_incomplete <lgl>,
#> #   flag_yearly_incomplete <lgl>, flag_two_of_three_years <lgl>
…
To explore any of these sub-data sets individually you can unnest the data (using the unnest() function from the tidyr package):

pm_daily_avg <- unnest(pm, daily_avg)
pm_daily_avg
#> # A tibble: 10,901 x 8
#>    ems_id site  date       n_readings valid avg_24h exceed flag_daily_inc…
#>    <chr>  <chr> <date>          <int> <lgl>   <dbl> <lgl>  <lgl>          
#>  1 02202… Powe… 2011-03-01         24 TRUE      1   FALSE  NA             
#>  2 02202… Powe… 2011-03-02         22 TRUE      2.3 FALSE  NA             
#>  3 02202… Powe… 2011-03-03         24 TRUE      2   FALSE  NA             
#>  4 02202… Powe… 2011-03-04         24 TRUE      1   FALSE  NA             
#>  5 02202… Powe… 2011-03-05         24 TRUE      1.6 FALSE  NA             
#>  6 02202… Powe… 2011-03-06         24 TRUE      1   FALSE  NA             
#>  7 02202… Powe… 2011-03-07         24 TRUE      1.6 FALSE  NA             
#>  8 02202… Powe… 2011-03-08         24 TRUE      2.2 FALSE  NA             
#>  9 02202… Powe… 2011-03-09         23 TRUE      1.3 FALSE  NA             
#> 10 02202… Powe… 2011-03-10         24 TRUE      2.6 FALSE  NA             
#> # ... with 10,891 more rows
…
Let’s say, for illustration purposes, that all high values in the summer of 2012 were due to forest fires and we want to exclude them.

We’ll filter() the daily data to just these dates and select() only the columns that reflect the grouping of our data and the dates.

high_dates <- pm_daily_avg %>%
  filter(date >= as.Date("2012-05-01"),
         date < as.Date("2012-10-01"),
         avg_24h > 10) %>%
  select(ems_id, site, date)
high_dates
#> # A tibble: 144 x 3
#>    ems_id  site                        date      
#>    <chr>   <chr>                       <date>    
#>  1 0220205 Powell River Wildwood_60    2012-07-08
#>  2 0220205 Powell River Wildwood_60    2012-07-09
#>  3 0220205 Powell River Wildwood_60    2012-07-10
#>  4 0220205 Powell River Wildwood_60    2012-08-18
#>  5 0310162 Port Moody Rocky Point Park 2012-07-06
#>  6 0310162 Port Moody Rocky Point Park 2012-07-07
#>  7 0310162 Port Moody Rocky Point Park 2012-07-08
#>  8 0310162 Port Moody Rocky Point Park 2012-07-09
#>  9 0310162 Port Moody Rocky Point Park 2012-07-10
#> 10 0310162 Port Moody Rocky Point Park 2012-07-11
#> # ... with 134 more rows

Now we can pass this on to our caaqs function with the exclude_df argument, which specifies the data frame, and the exclude_df_dt which specifies the name of the column holding the dates.

pm_excl <- pm_annual_caaqs(pm25_sample_data, 
                          by = c("ems_id", "site"),
                          return_all = TRUE,
                          exclude_df = high_dates,
                          exclude_df_dt = "date")

pm_excl_caaqs <- unnest(pm_excl, caaqs)
pm_excl_caaqs
#> # A tibble: 30 x 14
#>    ems_id site  caaqs_year min_year max_year n_years metric metric_value
#>    <chr>  <chr>      <dbl>    <dbl>    <dbl>   <dbl> <chr>         <dbl>
#>  1 02202… Powe…       2011     2011     2011       0 pm2.5…         NA  
#>  2 02202… Powe…       2012     2012     2012       1 pm2.5…         NA  
#>  3 02202… Powe…       2013     2012     2013       1 pm2.5…         NA  
#>  4 03101… Port…       2011     2011     2011       1 pm2.5…         NA  
#>  5 03101… Port…       2012     2011     2012       2 pm2.5…          4.3
#>  6 03101… Port…       2013     2011     2013       3 pm2.5…          5  
#>  7 03101… Squa…       2011     2011     2011       1 pm2.5…         NA  
#>  8 03101… Squa…       2012     2011     2012       2 pm2.5…          6.3
#>  9 03101… Squa…       2013     2011     2013       3 pm2.5…          6.3
#> 10 03101… Vanc…       2011     2011     2011       1 pm2.5…         NA  
#> # ... with 20 more rows, and 6 more variables: caaqs <ord>, mgmt <ord>,
#> #   excluded <lgl>, flag_daily_incomplete <lgl>,
#> #   flag_yearly_incomplete <lgl>, flag_two_of_three_years <lgl>
…
pm_excl <- pm_annual_caaqs(pm25_sample_data, 
                          by = c("ems_id", "site"),
                          return_all = TRUE,
                          exclude_df = high_dates,
                          exclude_df_dt = c("start", "end"))

pm_excl_caaqs <- unnest(pm_excl, caaqs)
pm_excl_caaqs
#> # A tibble: 30 x 14
#>    ems_id site  caaqs_year min_year max_year n_years metric metric_value
#>    <chr>  <chr>      <dbl>    <dbl>    <dbl>   <dbl> <chr>         <dbl>
#>  1 02202… Powe…       2011     2011     2011       0 pm2.5…         NA  
#>  2 02202… Powe…       2012     2012     2012       1 pm2.5…         NA  
#>  3 02202… Powe…       2013     2012     2013       1 pm2.5…         NA  
#>  4 03101… Port…       2011     2011     2011       1 pm2.5…         NA  
#>  5 03101… Port…       2012     2011     2012       2 pm2.5…          4.5
#>  6 03101… Port…       2013     2011     2013       3 pm2.5…          5.1
#>  7 03101… Squa…       2011     2011     2011       1 pm2.5…         NA  
#>  8 03101… Squa…       2012     2011     2012       2 pm2.5…          6.6
#>  9 03101… Squa…       2013     2011     2013       3 pm2.5…          6.5
#> 10 03101… Vanc…       2011     2011     2011       1 pm2.5…         NA  
#> # ... with 20 more rows, and 6 more variables: caaqs <ord>, mgmt <ord>,
#> #   excluded <lgl>, flag_daily_incomplete <lgl>,
#> #   flag_yearly_incomplete <lgl>, flag_two_of_three_years <lgl>
…
